{
    "data": {
        "results": [
            {
                "id": 1
            }
        ]
    },
    "meta": {
        "pagination": {
            "total_pages": 13,
            "total_items": 13,
            "last_page": 13,
            "next_page": 2,
            "next_page_url": "https://paginated-json-api.test?page=2"
        }
    }
}
